<?xml version="1.0" encoding="utf-8"?>
<!-- Generator: Adobe Illustrator 19.0.0, SVG Export Plug-In . SVG Version: 6.00 Build 0)  -->
<svg version="1.1" id="Capa_1" xmlns="http://www.w3.org/2000/svg" xmlns:xlink="http://www.w3.org/1999/xlink" x="0px" y="0px"
	 viewBox="-41 164.9 512 512" style="enable-background:new -41 164.9 512 512;" xml:space="preserve">
<style type="text/css">
	.st0{fill:#EBAE56;}
	.st1{fill:#DCA050;}
	.st2{fill:#008C80;}
	.st3{fill:#FFF5F5;}
	.st4{fill:#009A8E;}
	.st5{fill:#007E73;}
	.st6{fill:#2B6C7E;}
	.st7{fill:#174550;}
</style>
<path class="st0" d="M421,593.9H9v-330h412V593.9z"/>
<path class="st1" d="M29,593.9H9v-330h20V593.9z"/>
<path class="st2" d="M386,544.9H44V305.2h342V544.9z"/>
<path class="st3" d="M307.5,447.2c0-4.1,3.4-7.5,7.5-7.5h32c4.1,0,7.5,3.4,7.5,7.5s-3.4,7.5-7.5,7.5h-32
	C310.8,454.7,307.5,451.4,307.5,447.2z M141.5,416c-3.4-2.3-8.1-1.4-10.4,2.1l-20.4,30.6L90.3,418c-2.3-3.4-7-4.4-10.4-2.1
	c-3.4,2.3-4.4,7-2.1,10.4l23.9,35.8L77.8,498c-2.3,3.4-1.4,8.1,2.1,10.4c1.3,0.9,2.7,1.3,4.2,1.3c2.4,0,4.8-1.2,6.2-3.3l20.4-30.6
	l20.4,30.6c1.4,2.2,3.8,3.3,6.2,3.3c1.4,0,2.9-0.4,4.2-1.3c3.4-2.3,4.4-7,2.1-10.4l-23.9-35.8l23.9-35.8
	C145.9,422.9,145,418.3,141.5,416z M76,350.1h173.5c4.1,0,7.5-3.4,7.5-7.5s-3.4-7.5-7.5-7.5H76c-4.1,0-7.5,3.4-7.5,7.5
	S71.9,350.1,76,350.1z M176.3,374.9c0-4.1-3.4-7.5-7.5-7.5H76c-4.1,0-7.5,3.4-7.5,7.5s3.4,7.5,7.5,7.5h92.8
	C172.9,382.4,176.3,379,176.3,374.9z M347,469.7h-32c-4.1,0-7.5,3.4-7.5,7.5s3.4,7.5,7.5,7.5h32c4.1,0,7.5-3.4,7.5-7.5
	S351.1,469.7,347,469.7z M293.6,416c-3.4-2.3-8.1-1.4-10.4,2.1l-20.4,30.6L242.4,418c-2.3-3.4-7-4.4-10.4-2.1
	c-3.4,2.3-4.4,7-2.1,10.4l25.4,38.1v37.7c0,4.1,3.4,7.5,7.5,7.5s7.5-3.4,7.5-7.5v-37.7l25.4-38.1C298,422.9,297.1,418.3,293.6,416z
	 M209.3,441.9c-2.9-2.9-7.7-2.9-10.6,0l-9.7,9.7l-9.7-9.7c-2.9-2.9-7.7-2.9-10.6,0c-2.9,2.9-2.9,7.7,0,10.6l9.7,9.7l-9.7,9.7
	c-2.9,2.9-2.9,7.7,0,10.6c1.5,1.5,3.4,2.2,5.3,2.2s3.8-0.7,5.3-2.2l9.7-9.7l9.7,9.7c1.5,1.5,3.4,2.2,5.3,2.2s3.8-0.7,5.3-2.2
	c2.9-2.9,2.9-7.7,0-10.6l-9.7-9.7l9.7-9.7C212.3,449.6,212.3,444.8,209.3,441.9z"/>
<path class="st2" d="M421,273.9H9v-40c0-5.5,4.5-10,10-10h392c5.5,0,10,4.5,10,10V273.9z"/>
<path class="st4" d="M421,273.9H29v-40c0-5.5,4.5-10,10-10h372c5.5,0,10,4.5,10,10V273.9z"/>
<path class="st5" d="M59,248.9c0,5.5-4.5,10-10,10s-10-4.5-10-10c0-5.5,4.5-10,10-10S59,243.4,59,248.9z M79,238.9
	c-5.5,0-10,4.5-10,10c0,5.5,4.5,10,10,10s10-4.5,10-10C89,243.4,84.5,238.9,79,238.9z M109,238.9c-5.5,0-10,4.5-10,10
	c0,5.5,4.5,10,10,10s10-4.5,10-10C119,243.4,114.5,238.9,109,238.9z"/>
<path class="st3" d="M389,577.9L389,577.9c0,8.3-6.7,15-15,15h-80c-8.3,0-15-6.7-15-15l0,0c0-8.3,6.7-15,15-15h80
	C382.3,562.9,389,569.6,389,577.9z"/>
<path class="st6" d="M431,592.9v10c0,5.5-4.5,10-10,10H235v63.2c-6.6,0.5-13.3,0.8-20,0.8s-13.4-0.3-20-0.8v-63.2H9
	c-5.5,0-10-4.5-10-10v-10c0-5.5,4.5-10,10-10h412C426.5,582.9,431,587.4,431,592.9z"/>
<path class="st7" d="M225,676.7c-3.3,0.1-6.7,0.2-10,0.2c-6.7,0-13.4-0.3-20-0.8v-63.2h10c5.5,0,10,4.5,10,10v53.2
	C218.3,676.4,221.6,676.6,225,676.7z M29,582.9H9c-5.5,0-10,4.5-10,10v10c0,5.5,4.5,10,10,10h20c-5.5,0-10-4.5-10-10v-10
	C19,587.4,23.5,582.9,29,582.9z"/>
</svg>
