<?xml version="1.0" encoding="utf-8"?>
<!-- Generator: Adobe Illustrator 19.0.0, SVG Export Plug-In . SVG Version: 6.00 Build 0)  -->
<svg version="1.1" id="Capa_1" xmlns="http://www.w3.org/2000/svg" xmlns:xlink="http://www.w3.org/1999/xlink" x="0px" y="0px"
	 viewBox="-97 141 512 512" style="enable-background:new -97 141 512 512;" xml:space="preserve">
<style type="text/css">
	.st0{fill:#CFDFE8;}
	.st1{fill:#FDBD40;}
	.st2{fill:#FFD782;}
	.st3{fill:#D3843D;}
	.st4{fill:#2D75BB;}
	.st5{fill:#7D8D9C;}
	.st6{font-family:'MyriadPro-Bold';}
	.st7{font-size:193.1173px;}
</style>
<path class="st0" d="M392.7,284.5H202.3c-10-0.5-17.8-9-17.3-19V164c-0.6-9.2,6.3-17.3,15.5-18h194c9.2,0.7,16.2,8.8,15.5,18v101.4
	C410.5,275.5,402.7,284,392.7,284.5z"/>
<path class="st1" d="M-92,336.4h502V371H-92V336.4z"/>
<g>
	<path class="st2" d="M-74.7,371h34.6v277h-34.6V371z"/>
	<path class="st2" d="M219.6,371h173.1v277H219.6V371z"/>
</g>
<path class="st3" d="M-40.1,371h259.7v277H-40.1V371z"/>
<circle class="st2" cx="89.8" cy="215.2" r="51.9"/>
<path class="st4" d="M-5.4,336.4c0-47.8,35.5-60.6,79.3-60.6h31.7c43.9,0,79.3,12.8,79.3,60.6"/>
<path class="st5" d="M271.5,215.2h51.9v121.2h-51.9V215.2z"/>
<g>
	<path class="st3" d="M349.4,397h43.3v17.3h-43.3V397z"/>
	<path class="st3" d="M314.8,397h17.3v17.3h-17.3V397z"/>
</g>
<path class="st5" d="M288.8,171.9h17.3v17.3h-17.3V171.9z"/>
<text transform="matrix(1 0 0 1 30.5752 571.0001)" class="st2 st6 st7">$</text>
</svg>
