<?xml version="1.0" encoding="utf-8"?>
<!-- Generator: Adobe Illustrator 19.0.0, SVG Export Plug-In . SVG Version: 6.00 Build 0)  -->
<svg version="1.1" id="Layer_1" xmlns="http://www.w3.org/2000/svg" xmlns:xlink="http://www.w3.org/1999/xlink" x="0px" y="0px"
	 viewBox="-49 141 512 512" style="enable-background:new -49 141 512 512;" xml:space="preserve">
<style type="text/css">
	.st0{fill:#E6BE94;}
	.st1{fill:#996459;}
	.st2{fill:#4BB9EC;}
	.st3{fill:#FF4F19;}
	.st4{fill:#5C546A;}
	.st5{fill:#E3001E;}
	.st6{fill:#FFEBB7;}
	.st7{fill:#7E5C62;}
</style>
<g>
	<g>
		<polygon class="st0" points="438.8,625 -25.2,625 -25.2,409 70.8,409 206.8,273 342.8,409 438.8,409 		"/>
	</g>
	<g>
		<rect x="158.8" y="529" class="st1" width="96" height="96"/>
	</g>
	<g>
		<path class="st2" d="M252.8,497h-92c-1.1,0-2,0.9-2,2v30h96v-30C254.8,497.9,253.9,497,252.8,497z"/>
	</g>
	<g>
		<path class="st3" d="M280.6,209l13-19.6c1.6-2.5,1.8-5.6,0.4-8.2c-1.4-2.6-4.1-4.2-7.1-4.2h-80c-4.4,0-8,3.6-8,8v48
			c0,4.4,3.6,8,8,8h80c3,0,5.7-1.6,7.1-4.2c1.4-2.6,1.2-5.8-0.4-8.2L280.6,209z"/>
	</g>
	<g>
		<g>
			<path class="st4" d="M207,281c-4.4,0-8-3.6-8-8V169c0-4.4,3.6-8,8-8s8,3.6,8,8v104C215,277.4,211.4,281,207,281z"/>
		</g>
	</g>
	<g>
		<path class="st3" d="M239.4,309.9c1.2-3,4.2-4.9,7.4-4.9h152c2.7,0,5.3,1.4,6.8,3.7l56,88c1.6,2.5,1.7,5.6,0.3,8.1
			c-1.4,2.6-4.1,4.1-7,4.1h-120c-2.1,0-4.2-0.8-5.7-2.3l-88-88C238.8,316.4,238.1,312.9,239.4,309.9z"/>
	</g>
	<g>
		<path class="st3" d="M174.4,309.9c-1.2-3-4.2-4.9-7.4-4.9H15c-2.7,0-5.3,1.4-6.8,3.7l-56,88c-1.6,2.5-1.7,5.6-0.3,8.1
			c1.4,2.6,4.1,4.1,7,4.1H79c2.1,0,4.2-0.8,5.7-2.3l88-88C174.9,316.4,175.6,312.9,174.4,309.9z"/>
	</g>
	<g>
		<g>
			<path class="st5" d="M342.9,416.9c-2,0-4.1-0.8-5.7-2.3L207,284.3L76.8,414.5c-3.1,3.1-8.2,3.1-11.3,0s-3.1-8.2,0-11.3
				l135.9-135.9c3.1-3.1,8.2-3.1,11.3,0l135.9,135.9c3.1,3.1,3.1,8.2,0,11.3C347,416.1,344.9,416.9,342.9,416.9z"/>
		</g>
	</g>
	<g>
		<circle class="st6" cx="207" cy="409" r="48"/>
	</g>
	<g>
		<path class="st4" d="M207,377c-4.4,0-8,3.6-8,8v16h-16c-4.4,0-8,3.6-8,8s3.6,8,8,8h24c4.4,0,8-3.6,8-8v-24
			C215,380.6,211.4,377,207,377z"/>
	</g>
	<g>
		<g>
			<path class="st2" d="M326.8,461c0-11-9-20-20-20s-20,9-20,20c0,1.4,0.1,2.7,0.4,4h-0.4v32h40v-32h-0.4
				C326.6,463.7,326.8,462.4,326.8,461z"/>
		</g>
		<g>
			<path class="st7" d="M307,433c-15.4,0-28,12.6-28,28v36c0,4.4,3.6,8,8,8h40c4.4,0,8-3.6,8-8v-36C335,445.6,322.4,433,307,433z
				 M307,449c6.6,0,12,5.4,12,12v4h-24v-4C295,454.4,300.4,449,307,449z M295,489v-8h24v8H295z"/>
		</g>
	</g>
	<g>
		<g>
			<rect x="87" y="537" class="st2" width="40" height="48"/>
		</g>
		<g>
			<path class="st7" d="M127,529H87c-4.4,0-8,3.6-8,8v48c0,4.4,3.6,8,8,8h40c4.4,0,8-3.6,8-8v-48C135,532.6,131.4,529,127,529z
				 M119,545v8H95v-8H119z M95,577v-8h24v8H95z"/>
		</g>
	</g>
	<g>
		<g>
			<rect x="14.8" y="537" class="st2" width="40" height="48"/>
		</g>
		<g>
			<path class="st7" d="M54.8,529h-40c-4.4,0-8,3.6-8,8v48c0,4.4,3.6,8,8,8h40c4.4,0,8-3.6,8-8v-48C62.8,532.6,59.2,529,54.8,529z
				 M46.8,545v8h-24v-8H46.8z M22.8,577v-8h24v8H22.8z"/>
		</g>
	</g>
	<g>
		<g>
			<rect x="359" y="537" class="st2" width="40" height="48"/>
		</g>
		<g>
			<path class="st7" d="M399,529h-40c-4.4,0-8,3.6-8,8v48c0,4.4,3.6,8,8,8h40c4.4,0,8-3.6,8-8v-48C407,532.6,403.4,529,399,529z
				 M391,545v8h-24v-8H391z M367,577v-8h24v8H367z"/>
		</g>
	</g>
	<g>
		<g>
			<rect x="286.8" y="537" class="st2" width="40" height="48"/>
		</g>
		<g>
			<path class="st7" d="M326.8,529h-40c-4.4,0-8,3.6-8,8v48c0,4.4,3.6,8,8,8h40c4.4,0,8-3.6,8-8v-48
				C334.8,532.6,331.2,529,326.8,529z M318.8,545v8h-24v-8H318.8z M294.8,577v-8h24v8H294.8z"/>
		</g>
	</g>
	<g>
		<g>
			<path class="st2" d="M398.6,461c0-11-9-20-20-20s-20,9-20,20c0,1.4,0.1,2.7,0.4,4h-0.4v32h40v-32h-0.4
				C398.4,463.7,398.6,462.4,398.6,461z"/>
		</g>
		<g>
			<path class="st7" d="M378.8,433c-15.4,0-28,12.6-28,28v36c0,4.4,3.6,8,8,8h40c4.4,0,8-3.6,8-8v-36
				C406.8,445.6,394.2,433,378.8,433z M378.8,449c6.6,0,12,5.4,12,12v4h-24v-4C366.8,454.4,372.2,449,378.8,449z M366.8,489v-8h24v8
				H366.8z"/>
		</g>
	</g>
	<g>
		<g>
			<path class="st2" d="M54.6,461c0-11-9-20-20-20s-20,9-20,20c0,1.4,0.1,2.7,0.4,4h-0.4v32h40v-32h-0.4
				C54.4,463.7,54.6,462.4,54.6,461z"/>
		</g>
		<g>
			<path class="st7" d="M34.8,433c-15.4,0-28,12.6-28,28v36c0,4.4,3.6,8,8,8h40c4.4,0,8-3.6,8-8v-36C62.8,445.6,50.2,433,34.8,433z
				 M34.8,449c6.6,0,12,5.4,12,12v4h-24v-4C22.8,454.4,28.2,449,34.8,449z M22.8,489v-8h24v8H22.8z"/>
		</g>
	</g>
	<g>
		<g>
			<path class="st2" d="M126.3,461c0-11-9-20-20-20s-20,9-20,20c0,1.4,0.1,2.7,0.4,4h-0.4v32h40v-32h-0.4
				C126.2,463.7,126.3,462.4,126.3,461z"/>
		</g>
		<g>
			<path class="st7" d="M106.6,433c-15.4,0-28,12.6-28,28v36c0,4.4,3.6,8,8,8h40c4.4,0,8-3.6,8-8v-36C134.6,445.6,122,433,106.6,433
				z M106.6,449c6.6,0,12,5.4,12,12v4h-24v-4C94.6,454.4,99.9,449,106.6,449z M94.6,489v-8h24v8H94.6z"/>
		</g>
	</g>
	<g>
		<path class="st7" d="M207,465c-30.9,0-56-25.1-56-56s25.1-56,56-56s56,25.1,56,56S237.9,465,207,465z M207,369
			c-22.1,0-40,17.9-40,40s17.9,40,40,40s40-17.9,40-40S229.1,369,207,369z"/>
	</g>
	<g>
		<path class="st7" d="M239,489h-64c-13.2,0-24,10.8-24,24v112c0,4.4,3.6,8,8,8s8-3.6,8-8v-88h31.8v88h16v-88H247v88
			c0,4.4,3.6,8,8,8s8-3.6,8-8V513C263,499.8,252.2,489,239,489z M247,521h-80v-8c0-4.4,3.6-8,8-8h64c4.4,0,8,3.6,8,8V521z"/>
	</g>
	<g>
		<g>
			<path class="st4" d="M455,633H-41c-4.4,0-8-3.6-8-8s3.6-8,8-8h496c4.4,0,8,3.6,8,8S459.4,633,455,633z"/>
		</g>
	</g>
</g>
</svg>
