<?xml version="1.0" encoding="utf-8"?>
<!-- Generator: Adobe Illustrator 19.0.0, SVG Export Plug-In . SVG Version: 6.00 Build 0)  -->
<svg version="1.1" id="Layer_1" xmlns="http://www.w3.org/2000/svg" xmlns:xlink="http://www.w3.org/1999/xlink" x="0px" y="0px"
	 viewBox="-49 141 512 512" style="enable-background:new -49 141 512 512;" xml:space="preserve">
<style type="text/css">
	.st0{fill:#076673;}
	.st1{fill:#FFCA4F;}
	.st2{fill:#20D0C2;}
	.st3{fill:#FFFFFF;}
	.st4{fill:#0E7886;}
	.st5{fill:#ECF0F1;}
</style>
<g>
	<path class="st0" d="M74.5,598.1h225v-31.8h-225V598.1z"/>
	<path class="st1" d="M94.5,548.3h185.1c4.9,0,9,4,9,9v9H85.5v-9C85.5,552.4,89.5,548.3,94.5,548.3L94.5,548.3z"/>
	<path class="st0" d="M215.8,195.9v66.2v221.6H-14.4c-16.8,0-30.6,14.9-30.6,33.1V229c0-18.2,13.7-33.1,30.6-33.1
		C-14.4,195.9,215.8,195.9,215.8,195.9z M-44.9,519L-44.9,519L-44.9,519c0-0.7,0-1.4,0-2.1V519z"/>
	<path class="st2" d="M-14.4,483.8h230.2c-11.5,21.6-11.8,43.7,0,66.2H-14.4c-16.8,0-30.6-14.9-30.6-33.1
		C-44.9,498.7-31.2,483.8-14.4,483.8z"/>
	<path class="st3" d="M212,542.7c-6.2-15.8-5.9-33.1,0-51.7H-9.2c-14.1,0-25.6,11.6-25.6,25.8s11.5,25.8,25.6,25.8H212z"/>
	<path class="st4" d="M-2.3,211.4h202.4v254.9H-2.3V211.4z"/>
	<path class="st1" d="M186.2,575.5l-24.6-14.8l-17.3,14.8v-63.3h42L186.2,575.5L186.2,575.5z"/>
	<g>
		<path class="st5" d="M55.5,322.9H159v9.1H55.5C55.5,332,55.5,322.9,55.5,322.9z"/>
		<path class="st5" d="M55.5,347.8H159v9.1H55.5C55.5,356.9,55.5,347.8,55.5,347.8z"/>
		<path class="st5" d="M55.5,372.8h73.4v9.1H55.5C55.5,381.9,55.5,372.8,55.5,372.8z"/>
	</g>
	<path class="st0" d="M313.9,389.2L458.9,538c-1.1,2.3-2.3,4.6-3.4,6.8c-9.1,17.5-32.6,21-46.4,6.9L281.5,420.8
		c-4.5-4.6-4.4-12.1,0.2-16.7l15.5-15.1C301.8,384.5,309.3,384.6,313.9,389.2L313.9,389.2L313.9,389.2z"/>
	<path class="st2" d="M344.1,347.7c-0.7,1.2-1.6,2.5-2.5,3.6l-9,11l0.9,1c3.7,3.8,3.7,10-0.2,13.8l-64.2,62.5
		c-3.8,3.7-10,3.7-13.8-0.2l-1-1l-11.1,8.8c-1,0.8-1.9,1.4-3,2.1c1.3,3.5,0.6,7.6-2.3,10.3l0,0c-3.8,3.7-9.9,3.6-13.6-0.2
		l-58.7-60.2c-3.7-3.8-3.6-9.9,0.2-13.6v0c2.9-2.8,7.2-3.4,10.7-1.8c0.6-1,1.3-1.9,2-2.8l9-11l-1.2-1.3c-3.7-3.8-3.7-10,0.2-13.8
		l64.2-62.5c3.8-3.7,10-3.7,13.8,0.2l1.1,1.2l11.3-8.7c1.2-0.9,2.4-1.7,3.6-2.4c-1.6-3.6-1-8,2-10.9l0,0c3.8-3.7,9.9-3.6,13.6,0.2
		l58.7,60.2c3.7,3.8,3.6,9.9-0.2,13.6l0,0C351.8,348.6,347.6,349.2,344.1,347.7L344.1,347.7z"/>
	<path class="st1" d="M327.2,383l-3.7,3.6L241,301.9l3.6-3.5L327.2,383z M278.9,430.1L278.9,430.1l-82.5-84.7l-3.6,3.5l82.5,84.7
		L278.9,430.1L278.9,430.1L278.9,430.1z"/>
	<g>
		<path class="st3" d="M323.5,386.6L241,301.9l-44.7,43.5l82.5,84.7l8.4-8.2l27.8-27.1L323.5,386.6z"/>
	</g>
</g>
</svg>
