<?xml version="1.0" encoding="utf-8"?>
<!-- Generator: Adobe Illustrator 19.0.0, SVG Export Plug-In . SVG Version: 6.00 Build 0)  -->
<svg version="1.1" id="Capa_1" xmlns="http://www.w3.org/2000/svg" xmlns:xlink="http://www.w3.org/1999/xlink" x="0px" y="0px"
	 viewBox="176.3 379.7 34 34" style="enable-background:new 176.3 379.7 34 34;" xml:space="preserve">
<style type="text/css">
	.st0{fill:#48C5FF;}
</style>
<g>
	<g>
		<g>
			<polygon class="st0" points="201.4,399.9 199.2,402.2 199.9,402.9 201,401.7 201,405.9 201.9,405.9 201.9,401.7 203,402.9 
				203.7,402.2 			"/>
		</g>
	</g>
	<g>
		<g>
			<polygon class="st0" points="190.7,386.2 190,386.9 191.1,388 184,388 184,389 191.1,389 190,390.1 190.7,390.8 192.9,388.5 			
				"/>
		</g>
	</g>
	<g>
		<g>
			<path class="st0" d="M180.2,402v6.8h8.7V402H180.2z M187.9,407.8h-6.8V403h6.8V407.8z"/>
		</g>
	</g>
	<g>
		<g>
			<rect x="190.3" y="402" class="st0" width="4.8" height="1"/>
		</g>
	</g>
	<g>
		<g>
			<rect x="190.3" y="404" class="st0" width="4.8" height="1"/>
		</g>
	</g>
	<g>
		<g>
			<rect x="190.3" y="405.9" class="st0" width="4.8" height="1"/>
		</g>
	</g>
	<g>
		<g>
			<rect x="190.3" y="407.8" class="st0" width="4.8" height="1"/>
		</g>
	</g>
	<g>
		<g>
			<path class="st0" d="M207.7,396.8c-0.4-1.2-1.3-2.1-2.6-2.4l-2.7-0.5v-0.1c0.9-0.5,1.6-1.4,1.8-2.4c0.9-0.2,1.6-1,1.6-1.9v-3.3
				c0-1.3-0.9-2.5-2.1-2.9c-0.7-1-1.8-1.5-3-1.5c-3,0-5.5,2.5-5.5,5.5v2.2c0,0.9,0.7,1.7,1.6,1.9c0.3,1,0.9,1.9,1.8,2.4v0.1
				l-2.7,0.5c-1,0.2-1.9,0.9-2.3,1.8h-15.2v15.5h19.3v-12.6h10.8L207.7,396.8z M204.3,390.3v-1.7c0.3,0.2,0.5,0.5,0.5,0.8
				S204.6,390.1,204.3,390.3z M196.6,390.3c-0.3-0.2-0.5-0.5-0.5-0.8s0.2-0.7,0.5-0.8V390.3z M196.1,387.8v-0.6c0-2.5,2-4.5,4.5-4.5
				c0.9,0,1.8,0.5,2.3,1.2l0.1,0.2l0.2,0c0.9,0.2,1.6,1.1,1.6,2v1.7c-0.3-0.2-0.6-0.3-1-0.3c-1.1,0-2.3-0.4-3.2-1.1l-0.7-0.5
				l-0.7,0.7c-0.6,0.6-1.3,0.9-2.1,0.9C196.7,387.5,196.4,387.6,196.1,387.8z M197.6,390.4v-2c0.9-0.1,1.7-0.5,2.3-1.1l0.1-0.1l0,0
				c0.9,0.7,2.1,1.1,3.3,1.2v2c0,1.6-1.3,2.9-2.9,2.9C198.9,393.3,197.6,392,197.6,390.4z M196.6,410.7h-17.4v-9.7h17.4V410.7z
				 M196.6,400.1h-17.4v-2.9h13.9l-0.6,1.9h4V400.1z M204.7,398.2l-0.4-1.6l-0.9,0.2l0.3,1.3h-6.5l0.3-1.3l-0.9-0.2l-0.4,1.6h-2.4
				l0.3-1.1c0.2-0.9,1-1.5,1.8-1.7l3.5-0.7v-0.5c0.3,0.1,0.6,0.1,1,0.1s0.7,0,1-0.1v0.5l3.5,0.7c0.9,0.2,1.6,0.8,1.8,1.7l0.3,1.1
				H204.7z"/>
		</g>
	</g>
	<g>
		<g>
			<rect x="180.2" y="398.2" class="st0" width="1" height="1"/>
		</g>
	</g>
	<g>
		<g>
			<rect x="182.1" y="398.2" class="st0" width="1" height="1"/>
		</g>
	</g>
	<g>
		<g>
			<rect x="184" y="398.2" class="st0" width="1" height="1"/>
		</g>
	</g>
	<g>
		<g>
			<rect x="178.2" y="388" class="st0" width="1" height="1"/>
		</g>
	</g>
	<g>
		<g>
			<rect x="180.2" y="388" class="st0" width="1" height="1"/>
		</g>
	</g>
	<g>
		<g>
			<rect x="182.1" y="388" class="st0" width="1" height="1"/>
		</g>
	</g>
	<g>
		<g>
			<rect x="201" y="410.7" class="st0" width="1" height="1"/>
		</g>
	</g>
	<g>
		<g>
			<rect x="201" y="408.8" class="st0" width="1" height="1"/>
		</g>
	</g>
	<g>
		<g>
			<rect x="201" y="406.9" class="st0" width="1" height="1"/>
		</g>
	</g>
</g>
</svg>
