<?xml version="1.0" encoding="iso-8859-1"?>
<!-- Generator: Adobe Illustrator 19.0.0, SVG Export Plug-In . SVG Version: 6.00 Build 0)  -->
<svg version="1.1" id="Layer_1" xmlns="http://www.w3.org/2000/svg" xmlns:xlink="http://www.w3.org/1999/xlink" x="0px" y="0px"
	 viewBox="-49 141 512 512" style="enable-background:new -49 141 512 512;" xml:space="preserve">
<g>
	<path style="fill:#F1543F;" d="M442.102,415.808v10.449c0,6.269-4.18,10.449-10.449,10.449h-37.616v15.673h42.841
		c11.494,0,20.898-9.404,20.898-20.898v-15.673c0-4.18-3.135-8.359-8.359-8.359l0,0
		C445.237,407.449,442.102,410.584,442.102,415.808z"/>
	<path style="fill:#F1543F;" d="M163.114,610.159c-2.09,20.898-19.853,37.616-41.796,37.616h-1.045
		c-22.988,0-41.796-18.808-41.796-41.796v-24.033C103.555,595.531,132.812,604.935,163.114,610.159z"/>
</g>
<path style="fill:#40596B;" d="M28.322,345.8c26.122-14.629,54.335-24.033,80.457-27.167L51.31,261.163
	c-17.763,17.763-26.122,39.706-26.122,62.694C26.233,330.127,27.278,338.486,28.322,345.8z"/>
<g>
	<path style="fill:#F1543F;" d="M-32.282,401.18c-14.629,14.629-14.629,71.053,0,85.682c7.314,7.314,41.796,0,41.796,0V401.18
		C8.469,401.18-24.967,393.865-32.282,401.18z"/>
	<path style="fill:#F1543F;" d="M331.343,581.947v24.033c0,22.988-18.808,41.796-41.796,41.796h-1.045
		c-21.943,0-39.706-16.718-41.796-37.616C278.053,604.935,306.265,595.531,331.343,581.947z"/>
</g>
<ellipse style="fill:#FF7058;" cx="204.91" cy="444.02" rx="219.429" ry="169.273"/>
<circle style="fill:#40596B;" cx="52.355" cy="397" r="12.539"/>
<path style="fill:#F1543F;" d="M273.873,317.588H136.992c-4.18,0-8.359,3.135-8.359,8.359l0,0c0,4.18,3.135,8.359,8.359,8.359
	h136.882c4.18,0,7.314-3.135,7.314-8.359l0,0C281.188,321.767,278.053,317.588,273.873,317.588z"/>
<circle style="fill:#FFD15C;" cx="204.91" cy="236.086" r="89.861"/>
<circle style="fill:#F8B64C;" cx="204.91" cy="236.086" r="67.918"/>
<path style="fill:#FFD15C;" d="M194.461,263.253c-2.09-2.09-3.135-5.224-4.18-9.404l-17.763,2.09
	c1.045,8.359,4.18,15.673,9.404,19.853c5.224,5.224,11.494,7.314,18.808,8.359v8.359h9.404v-9.404
	c8.359-1.045,15.673-4.18,19.853-10.449c5.225-5.224,7.314-12.539,7.314-19.853s-2.09-13.584-6.269-17.763
	c-4.18-4.18-11.494-8.359-21.943-11.494v-24.033c4.18,2.09,7.314,5.224,8.359,10.449l16.718-2.09
	c-1.045-6.269-4.18-11.494-8.359-15.673c-4.18-4.18-9.404-6.269-16.718-7.314v-7.314h-9.404v6.269
	c-7.314,1.045-13.584,3.135-18.808,8.359c-4.18,5.224-7.314,11.494-7.314,18.808s2.09,13.584,6.269,18.808
	c4.18,5.224,10.449,8.359,18.808,11.494v28.212C197.596,268.478,195.506,266.388,194.461,263.253z M210.135,244.445
	c4.18,1.045,7.314,3.135,8.359,5.225c1.045,2.09,3.135,5.224,3.135,7.314c0,3.135-1.045,6.269-3.135,8.359
	c-2.09,2.09-5.224,4.18-8.359,4.18V244.445z M194.461,217.278c-1.045-2.09-2.09-4.18-2.09-6.269s1.045-5.224,2.09-7.314
	s3.135-3.135,6.269-4.18v22.988C197.596,221.457,195.506,219.367,194.461,217.278z"/>
</svg>
