<?xml version="1.0" encoding="utf-8"?>
<!-- Generator: Adobe Illustrator 19.0.0, SVG Export Plug-In . SVG Version: 6.00 Build 0)  -->
<svg version="1.1" id="Capa_1" xmlns="http://www.w3.org/2000/svg" xmlns:xlink="http://www.w3.org/1999/xlink" x="0px" y="0px"
	 viewBox="-495 164.9 512 512" style="enable-background:new -495 164.9 512 512;" xml:space="preserve">
<style type="text/css">
	.st0{fill:#F7B563;}
	.st1{fill:#B5885B;}
	.st2{fill:#FFFFFF;}
	.st3{fill:#E7ECED;}
	.st4{fill:#C7CAC7;}
</style>
<path class="st0" d="M-29.8,658.7h-418.5c-1.2,0-2.2-0.9-2.4-2L-494,370.9c-0.2-1.4,0.9-2.7,2.4-2.7H13.5c1.5,0,2.6,1.3,2.4,2.7
	l-43.3,285.8C-27.6,657.8-28.6,658.7-29.8,658.7z"/>
<g>
	<path class="st1" d="M-18.5,368.1V234c0-3.7-3-6.8-6.8-6.8h-271.2c-2.4,0-4.6-1.2-5.8-3.3l-22.5-37.5c-1.2-2-3.4-3.3-5.8-3.3H-452
		c-3.7,0-6.8,3-6.8,6.8v178.1C-458.8,368.1-18.5,368.1-18.5,368.1z"/>
</g>
<rect x="-432.4" y="332.9" class="st2" width="387.4" height="35.2"/>
<rect x="-423.6" y="306.5" class="st3" width="369.8" height="26.4"/>
<rect x="-414.8" y="280.1" class="st4" width="352.2" height="26.4"/>
</svg>
