<?xml version="1.0" encoding="utf-8"?>
<!-- Generator: Adobe Illustrator 19.0.0, SVG Export Plug-In . SVG Version: 6.00 Build 0)  -->
<svg version="1.1" id="Layer_1" xmlns="http://www.w3.org/2000/svg" xmlns:xlink="http://www.w3.org/1999/xlink" x="0px" y="0px"
	 viewBox="-41 164.9 512 512" style="enable-background:new -41 164.9 512 512;" xml:space="preserve">
<style type="text/css">
	.st0{fill:#694B4B;}
	.st1{fill:#5A4146;}
	.st2{fill:#785550;}
	.st3{fill:#E6AF78;}
	.st4{fill:#EFF2FA;}
	.st5{fill:#D29B6E;}
	.st6{fill:#E4EAF6;}
	.st7{fill:#F0C087;}
	.st8{fill:#5B5D6E;}
	.st9{fill:#515262;}
	.st10{fill:#B4E1FA;}
	.st11{fill:#A0D2F0;}
</style>
<path class="st0" d="M47.2,324.5c-82.1,0-73,99.9-72.7,172.3c0,2.7,1.4,5.2,3.8,6.6c9.1,5.5,34.1,18.3,68.9,18.3
	s59.8-12.8,68.9-18.3c2.3-1.4,3.8-3.9,3.8-6.6C120.3,424.4,129.4,324.5,47.2,324.5z"/>
<path class="st1" d="M41.9,324.7C-34.5,329-25.8,426-25.4,496.8c0,2.7,1.4,5.2,3.8,6.6c9.1,5.5,34.1,18.3,68.9,18.3L68,376.4"/>
<path class="st0" d="M47.2,324.5C0.5,324.5-2.7,381-2.7,381c26.9-4.5,43.5,6.8,70.7-4.5L47.2,521.7c34.8,0,59.8-12.8,68.9-18.3
	c2.3-1.4,3.8-3.9,3.8-6.6C120.3,424.4,129.4,324.5,47.2,324.5z"/>
<path class="st2" d="M119.9,496.8c0.3-62.2,7-144.7-43.2-166.6c-0.9,4.5-2.5,17.3,1.7,25.5c10.4,20.8,20.8,20.8,31.1,36.3
	c10.4,57.1-19.8,117.7-29.9,125.9l0,0c17.8-4.2,30.5-10.9,36.5-14.5C118.4,502,119.9,499.5,119.9,496.8z"/>
<path class="st3" d="M125.9,512.5l-46.3-19.3c-3.9-1.6-6.4-5.4-6.4-9.6v-12.5H21.3v12.5c0,4.2-2.5,8-6.4,9.6l-46.3,19.3
	c-5.8,2.4-9.6,8.1-9.6,14.4v20.8c0,5.7,4.6,10.4,10.4,10.4h155.7c5.7,0,10.4-4.6,10.4-10.4v-20.8C135.4,520.6,131.7,515,125.9,512.5
	z"/>
<path class="st4" d="M125.9,512.5l-44.8-18.7l-33.9,14.6l-33.9-14.6l-44.8,18.7c-5.8,2.4-9.6,8.1-9.6,14.4v20.8
	c0,5.7,4.6,10.4,10.4,10.4h155.7c5.7,0,10.4-4.6,10.4-10.4v-20.8C135.4,520.6,131.7,515,125.9,512.5z"/>
<path class="st5" d="M73.2,471.1H21.3v12.5c0,4.2-2.5,8-6.4,9.6l-7.2,3C63,510.4,73.2,471.1,73.2,471.1z"/>
<g>
	<path class="st6" d="M-15.7,532.6L-36.5,516c-2.8,2.9-4.5,6.7-4.5,10.9v20.8c0,5.7,4.6,10.4,10.4,10.4h20.8v-13.3
		C-9.9,540-12,535.6-15.7,532.6z"/>
	<path class="st6" d="M135.4,547.7v-20.8c0-4.1-1.6-8-4.4-10.8l-20.9,16.5c-3.7,3-5.8,7.4-5.8,12.2V558h20.8
		C130.8,558.1,135.4,553.4,135.4,547.7z"/>
	<path class="st6" d="M48,547.7h-1.6c-2.4,0-4.4-2-4.4-4.4v-34.7h10.4v34.7C52.4,545.7,50.4,547.7,48,547.7z"/>
	<path class="st6" d="M47.2,508.5l-29.7-22.3c-1.9-1.4-4.6-1-5.9,1l-5.9,8.8l18.2,25.5c1.4,1.9,4.1,2.3,6,0.8L47.2,508.5z"/>
	<path class="st6" d="M47.2,508.5l29.7-22.3c1.9-1.4,4.6-1,5.9,1l5.9,8.8l-18.2,25.5c-1.4,1.9-4.1,2.3-6,0.8L47.2,508.5z"/>
</g>
<path class="st7" d="M73.2,371.2c-25.9,25.9-76.9,5.2-76.9,46.7l3.2,30.6c0.6,6.8,4.6,12.9,10.6,16.3l29.5,16.4
	c4.7,2.6,10.4,2.6,15.1,0l29.5-16.4c6-3.3,10-9.4,10.6-16.3l3.7-36.3c0.3-2.6,0.3-5.2,0.2-7.8C96.9,391.2,78.4,381.6,73.2,371.2z"/>
<path class="st3" d="M-3.7,417.9l3.2,30.6c0.6,6.8,4.6,12.9,10.6,16.3l29.5,16.4c3.3,1.8,7,2.3,10.6,1.6l0,0c0,0-14.9-4.5-23.8-28.5
	c-2.7-7.4-6.5-46.3-3.2-51c6.4-9.4,42.2-10.4,52.7-27.8c-0.5-0.6-1-1.3-1.4-1.9c0-0.1-0.1-0.1-0.1-0.2c-0.5-0.7-0.9-1.4-1.2-2.1
	C47.2,397.2-3.7,376.4-3.7,417.9z"/>
<path class="st6" d="M85.1,547.7H71.6c-4.9,0-8.8,4-8.8,8.8v1.6h31.1v-1.6C93.9,551.6,90,547.7,85.1,547.7z"/>
<polygon class="st3" points="401.8,488.4 401.8,459.9 328.5,459.9 328.5,488.4 365.1,521 "/>
<path class="st4" d="M458.4,501.7l-50.4-11.9c-0.8-0.2-1.5-0.5-2.1-0.9l-40.8,23.8l-39.2-25c-1,1-2.3,1.7-3.7,2l-50.4,11.9
	c-7.4,1.7-12.6,8.3-12.6,15.9v31.9c0,4.5,3.6,8.1,8.1,8.1h195.4c4.5,0,8.1-3.6,8.1-8.1v-31.9C471,510,465.8,503.5,458.4,501.7z"/>
<path class="st5" d="M328.5,459.9V490c46.2,16.6,73.3-25,73.3-25v-5.1H328.5L328.5,459.9z"/>
<path class="st7" d="M312.2,366.3l3.5,78.1c0.3,7.3,3.9,14.1,9.7,18.4l16.8,12.6c4.2,3.2,9.4,4.9,14.7,4.9h16.3
	c5.3,0,10.4-1.7,14.7-4.9l16.8-12.6c5.8-4.4,9.4-11.1,9.7-18.4l3.5-78.1L312.2,366.3L312.2,366.3z"/>
<path class="st3" d="M352.9,382.5c16.3,0,40.7-4.1,46.5-16.3h-87.2l3.5,78.1c0.3,7.3,3.9,14.1,9.7,18.4l16.8,12.6
	c4.2,3.2,9.4,4.9,14.7,4.9h8.1c-8.1,0-24.4-16.3-24.4-36.6c0-10,0-36.6,0-48.9C340.7,390.7,344.8,382.5,352.9,382.5z"/>
<path class="st6" d="M441.1,531.2l26.4-23.7c2.2,2.8,3.5,6.3,3.5,10.1v31.9c0,4.5-3.6,8.1-8.1,8.1h-28.5v-11.3
	C434.4,540.6,436.8,535.1,441.1,531.2z"/>
<polygon class="st8" points="375.3,557.6 355,557.6 357.5,521 372.8,521 "/>
<path class="st9" d="M375.3,512.8H355v2.4c0,5.4,4.4,9.9,9.9,9.9h0.6c5.4,0,9.9-4.4,9.9-9.9L375.3,512.8L375.3,512.8z"/>
<g>
	<path class="st6" d="M327.9,479.3l37.2,33.5c0,0-10.4,5.3-23.3,15.9c-2.7,2.2-6.7,1.3-8.1-1.8l-17.5-38.5l5.5-8.3
		C323.2,478.1,326.1,477.7,327.9,479.3z"/>
	<path class="st6" d="M402.4,479.3l-37.2,33.5c0,0,10.4,5.3,23.3,15.9c2.7,2.2,6.7,1.3,8.1-1.8l17.5-38.5l-5.5-8.3
		C407.1,478.1,404.2,477.7,402.4,479.3z"/>
</g>
<path class="st2" d="M389.8,339.3l3.8,27c17.4,3.5,19.9,30.8,20.3,38.6c0.1,1.4,0.5,2.8,1.3,4l6.6,10.3c0,0-2.3-17.1,8.1-28.5
	C430,390.7,433.6,323,389.8,339.3z"/>
<path class="st7" d="M426,417.5l-4.6,18.4c-0.5,2.2-2.5,3.7-4.7,3.7l0,0c-2.5,0-4.6-1.8-4.9-4.3l-2.4-18.8c-0.6-5,3.3-9.5,8.4-9.5h0
	C423.3,407,427.3,412.1,426,417.5z"/>
<path class="st0" d="M316.1,332l6,4.1c-27.2,20.1-22.1,54.6-22.1,54.6c8.1,8.1,8.1,28.5,8.1,28.5l8.1-8.1c0,0-3.1-23.5,12.2-32.6
	c14.3-8.4,26.7-4.1,39.4-4.1c34.1,0,43.6-12.9,42-28.5c-0.9-8.1-13.2-25-44.8-24.4C352.4,321.7,328.5,325.5,316.1,332z"/>
<path class="st1" d="M313.7,370.8c0,0-4.3-17.1,8.4-34.7c-27.2,20.1-22.1,54.6-22.1,54.6c8.1,8.1,8.1,28.5,8.1,28.5l8.1-8.1
	c0,0-3.1-23.5,12.2-32.6c14.3-8.4,26.7-4.1,39.4-4.1c5.5,0,10.4-0.4,14.7-1C356.4,374.3,340.9,354.4,313.7,370.8z"/>
<path class="st3" d="M304.3,417.5l4.6,18.4c0.5,2.2,2.5,3.7,4.8,3.7l0,0c2.5,0,4.6-1.8,4.9-4.3l2.4-18.8c0.6-5-3.3-9.5-8.4-9.5h0
	C307,407,303,412.1,304.3,417.5z"/>
<path class="st6" d="M414,549.5h-20.4c-4.5,0-8.1,3.6-8.1,8.1l0,0h36.6l0,0C422.1,553.1,418.5,549.5,414,549.5z"/>
<path class="st0" d="M215.2,222.4C75.5,222.4,91,392.2,91.6,515.3c0,4.6,2.5,8.8,6.4,11.2c15.5,9.3,58,31.1,117.1,31.1
	s101.6-21.8,117.1-31.1c4-2.4,6.4-6.6,6.4-11.2C339.3,392.2,354.8,222.4,215.2,222.4z"/>
<path class="st1" d="M206.2,222.7C76.3,230,91,394.9,91.6,515.3c0,4.6,2.5,8.8,6.4,11.2c15.5,9.3,58,31.1,117.1,31.1l35.3-247"/>
<path class="st0" d="M215.2,222.4c-79.4,0-84.9,95.9-84.9,95.9c45.8-7.7,73.9,11.6,120.2-7.7l-35.3,247
	c59.1,0,101.6-21.8,117.1-31.1c4-2.4,6.4-6.6,6.4-11.2C339.3,392.2,354.8,222.4,215.2,222.4z"/>
<path class="st2" d="M338.7,515.3c0.5-105.7,12-245.9-73.4-283.3c-1.5,7.7-4.2,29.3,2.8,43.3c17.6,35.3,35.3,35.3,52.9,61.8
	c17.6,97-33.7,200-50.8,214.1l0,0c30.2-7.2,51.9-18.6,62-24.6C336.2,524.1,338.7,519.9,338.7,515.3z"/>
<path class="st3" d="M348.8,542l-78.7-32.8c-6.6-2.7-10.9-9.2-10.9-16.3v-21.3H171v21.3c0,7.1-4.3,13.5-10.9,16.3L81.5,542
	c-9.9,4.1-16.3,13.7-16.3,24.4v35.3c0,9.7,7.9,17.6,17.6,17.6h264.7c9.7,0,17.6-7.9,17.6-17.6v-35.3
	C365.1,555.8,358.7,546.1,348.8,542z"/>
<path class="st10" d="M348.8,542l-76.1-31.7l-57.6,24.8l-57.6-24.8L81.5,542c-9.9,4.1-16.3,13.7-16.3,24.4v35.3
	c0,9.7,7.9,17.6,17.6,17.6h264.7c9.7,0,17.6-7.9,17.6-17.6v-35.3C365.1,555.8,358.7,546.1,348.8,542z"/>
<path class="st5" d="M259.3,471.6H171v21.3c0,7.1-4.3,13.5-10.9,16.3l-12.3,5.1C242,538.3,259.3,471.6,259.3,471.6z"/>
<g>
	<path class="st11" d="M108.2,576.2L72.8,548c-4.7,4.9-7.6,11.4-7.6,18.5v35.3c0,9.7,7.9,17.6,17.6,17.6h35.3v-22.6
		C118.1,588.8,114.5,581.2,108.2,576.2z"/>
	<path class="st11" d="M365.1,601.7v-35.3c0-7-2.8-13.5-7.5-18.4l-35.5,28.1c-6.3,5-9.9,12.6-9.9,20.7v22.6h35.3
		C357.2,619.4,365.1,611.5,365.1,601.7z"/>
	<path class="st11" d="M215.2,601.7L215.2,601.7c-4.9,0-8.8-4-8.8-8.8v-57.7H224v57.7C224,597.8,220,601.7,215.2,601.7z"/>
	<path class="st11" d="M215.2,535.2l-50.5-37.9c-3.2-2.4-7.9-1.6-10.1,1.7l-10,15l31,43.3c2.4,3.3,7,3.9,10.2,1.4L215.2,535.2z"/>
	<path class="st11" d="M215.2,535.2l50.5-37.9c3.2-2.4,7.9-1.6,10.1,1.7l10,15l-31,43.3c-2.4,3.3-7,3.9-10.2,1.4L215.2,535.2z"/>
</g>
<path class="st7" d="M259.3,301.8c-44.1,44.1-130.7,8.8-130.7,79.4l5.5,52c1.1,11.6,7.8,22,18,27.7l50.2,27.9c8,4.4,17.7,4.4,25.7,0
	l50.2-27.9c10.2-5.7,16.9-16,18-27.7l6.3-61.7c0.5-4.4,0.5-8.8,0.4-13.2C299.7,335.8,268.1,319.4,259.3,301.8z"/>
<path class="st3" d="M128.6,381.2l5.5,52c1.1,11.6,7.8,22,18,27.7l50.2,27.9c5.5,3.1,11.9,3.9,18,2.7l0,0c0,0-25.3-7.7-40.4-48.5
	c-4.6-12.5-11-78.7-5.5-86.8c10.9-16,71.7-17.6,89.6-47.3c-0.9-1.1-1.7-2.2-2.5-3.3c-0.1-0.1-0.1-0.2-0.2-0.3
	c-0.8-1.2-1.5-2.3-2.1-3.5C215.2,345.9,128.6,310.6,128.6,381.2z"/>
<path class="st11" d="M285.7,601.7h-35.3c-4.9,0-8.8,4-8.8,8.8v8.8h52.9v-8.8C294.6,605.7,290.6,601.7,285.7,601.7z"/>
</svg>
