<?xml version="1.0" encoding="utf-8"?>
<!-- Generator: Adobe Illustrator 19.0.0, SVG Export Plug-In . SVG Version: 6.00 Build 0)  -->
<svg version="1.1" id="Capa_1" xmlns="http://www.w3.org/2000/svg" xmlns:xlink="http://www.w3.org/1999/xlink" x="0px" y="0px"
	 viewBox="-65 188.9 464 464" style="enable-background:new -65 188.9 464 464;" xml:space="preserve">
<style type="text/css">
	.st0{fill:#CFDFE8;}
	.st1{fill:#E9686A;}
	.st2{fill:#FFFFFF;}
	.st3{fill:#5A6470;}
</style>
<path class="st0" d="M-1,188.9h336l0,0v432c0,17.7-14.3,32-32,32H31c-17.7,0-32-14.3-32-32V188.9L-1,188.9z"/>
<path class="st1" d="M-1,188.9h336v80H-1V188.9z"/>
<g>
	<path class="st2" d="M47,316.9h64v48H47V316.9z"/>
	<path class="st2" d="M47,476.9h64v48H47V476.9z"/>
	<path class="st2" d="M47,556.9h64v48H47V556.9z"/>
</g>
<path class="st1" d="M55,452.9c-0.7,0-1.4-0.1-2.1-0.3c-2.6-0.7-4.6-2.7-5.4-5.2l-8-24c-1.4-4.2,0.9-8.7,5.1-10.1
	c4.2-1.4,8.7,0.9,10.1,5.1l4.2,12.7l47-40.2c3.2-3,8.3-2.8,11.3,0.4c3,3.2,2.8,8.3-0.4,11.3c-0.1,0.1-0.3,0.3-0.5,0.4l-56,48
	C58.8,452.2,56.9,452.9,55,452.9L55,452.9z"/>
<g>
	<path class="st3" d="M151,308.9h144v16H151V308.9z"/>
	<path class="st3" d="M151,340.9h144v16H151V340.9z"/>
	<path class="st3" d="M151,388.9h144v16H151V388.9z"/>
	<path class="st3" d="M151,420.9h144v16H151V420.9z"/>
	<path class="st3" d="M151,468.9h144v16H151V468.9z"/>
	<path class="st3" d="M151,500.9h144v16H151V500.9z"/>
	<path class="st3" d="M151,548.9h144v16H151V548.9z"/>
	<path class="st3" d="M151,580.9h144v16H151V580.9z"/>
</g>
<g>
	<path class="st2" d="M87,244.9H47c-4.4,0-8-3.6-8-8s3.6-8,8-8h40c4.4,0,8,3.6,8,8S91.4,244.9,87,244.9z"/>
	<path class="st2" d="M287,244.9h-40c-4.4,0-8-3.6-8-8s3.6-8,8-8h40c4.4,0,8,3.6,8,8S291.4,244.9,287,244.9z"/>
</g>
</svg>
