<?xml version="1.0" encoding="utf-8"?>
<!-- Generator: Adobe Illustrator 19.0.0, SVG Export Plug-In . SVG Version: 6.00 Build 0)  -->
<svg version="1.1" id="Layer_1" xmlns="http://www.w3.org/2000/svg" xmlns:xlink="http://www.w3.org/1999/xlink" x="0px" y="0px"
	 viewBox="-54 146.4 501.6 501.6" style="enable-background:new -54 146.4 501.6 501.6;" xml:space="preserve">
<style type="text/css">
	.st0{fill:#40596B;}
	.st1{fill:#FFFFFF;}
	.st2{fill:#CDD6E0;}
	.st3{fill:#F2F2F2;}
	.st4{fill:#ACB3BA;}
	.st5{fill:#FFD15C;}
	.st6{fill:#F8B64C;}
	.st7{fill:#FF7058;}
	.st8{fill:#E4EAEF;}
	.st9{fill:#F1543F;}
</style>
<g>
	<path class="st0" d="M426.7,224.8H-33.1c-11.5,0-20.9,9.4-20.9,20.9v311.4c0,11.5,9.4,20.9,20.9,20.9h459.8
		c11.5,0,20.9-9.4,20.9-20.9V245.7C447.6,234.2,438.1,224.8,426.7,224.8z"/>
	<rect x="-22.7" y="256.2" class="st1" width="438.9" height="289.4"/>
	<rect x="100.6" y="578" class="st2" width="191.2" height="56.4"/>
	<rect x="43.2" y="634.4" class="st3" width="307.2" height="13.6"/>
	<rect x="100.6" y="578" class="st4" width="191.2" height="15.7"/>
	<path class="st3" d="M378.6,263.5v265.4c0,9.4-7.3,16.7-16.7,16.7H30.6c-9.4,0-16.7-7.3-16.7-16.7V263.5H378.6z"/>
	<g>
		<path class="st1" d="M198.9,337.7v39.7c-1,0-1,0-2.1,0s-1,0-2.1,0v-39.7H198.9z"/>
		<path class="st1" d="M198.9,490.2v39.7h-4.2v-39.7c1,0,1,0,2.1,0S197.8,490.2,198.9,490.2z"/>
		<path class="st1" d="M265.7,366.9l-28.2,28.2c-1-1-2.1-2.1-3.1-3.1l28.2-28.2L265.7,366.9z"/>
		<path class="st1" d="M158.1,475.6l-28.2,28.2l-3.1-3.1l28.2-28.2C156,473.5,157.1,474.5,158.1,475.6z"/>
		<path class="st1" d="M292.9,431.7v4.2h-38.7c0-1,0-1,0-2.1c0-1,0-1,0-2.1H292.9L292.9,431.7z"/>
		<path class="st1" d="M140.4,433.8c0,1,0,1,0,2.1h-38.7v-4.2h38.7C140.4,431.7,140.4,432.7,140.4,433.8z"/>
		<path class="st1" d="M265.7,499.6l-3.1,3.1l-27.2-27.2c1-1,2.1-2.1,3.1-3.1L265.7,499.6z"/>
		<path class="st1" d="M158.1,392c-1,1-2.1,2.1-3.1,3.1l-28.2-28.2l3.1-3.1L158.1,392z"/>
		<path class="st1" d="M176.9,380.5c-1,0-2.1,1-4.2,2.1l-9.4-21.9l4.2-2.1L176.9,380.5z"/>
		<path class="st1" d="M229.2,508l-4.2,2.1l-9.4-21.9c1,0,2.1-1,4.2-2.1L229.2,508z"/>
		<path class="st1" d="M145.6,409.8c-1,1-1,2.1-2.1,4.2l-21.9-9.4l2.1-4.2L145.6,409.8z"/>
		<path class="st1" d="M272,463l-2.1,4.2l-21.9-9.4c1-1,1-2.1,2.1-4.2L272,463z"/>
		<path class="st1" d="M145.6,456.8l-21.9,9.4l-2.1-4.2l21.9-9.4C144.5,454.7,144.5,455.7,145.6,456.8z"/>
		<path class="st1" d="M272,404.5l-21.9,9.4c0-1-1-2.1-2.1-4.2l21.9-9.4L272,404.5z"/>
		<path class="st1" d="M176.9,487.1l-9.4,21.9l-4.2-2.1l9.4-21.9C174.8,486,175.9,486,176.9,487.1z"/>
		<path class="st1" d="M229.2,359.6l-8.4,21.9c-1-1-2.1-1-4.2-2.1l9.4-21.9L229.2,359.6z"/>
	</g>
	<path class="st5" d="M357.7,146.4H35.9c-11.5,0-20.9,9.4-20.9,20.9v54.3h364.7v-54.3C378.6,155.8,369.2,146.4,357.7,146.4z"/>
	<polygon class="st0" points="271,420.2 290.8,491.3 308.6,473.5 325.3,491.3 341,475.6 324.3,457.8 341,440.1 	"/>
	<ellipse class="st6" cx="151.8" cy="184.1" rx="12.5" ry="12.5"/>
	<ellipse class="st7" cx="103.8" cy="184.1" rx="12.5" ry="12.5"/>
	<ellipse class="st6" cx="55.7" cy="184.1" rx="12.5" ry="12.5"/>
	<path class="st8" d="M378.6,271.8v49.1c-6.3,5.2-14.6,7.3-23,7.3c-21.9,0-39.7-17.8-39.7-39.7c0,21.9-17.8,39.7-39.7,39.7
		s-39.7-17.8-39.7-39.7c0,21.9-17.8,39.7-39.7,39.7s-39.7-17.8-39.7-39.7c0,21.9-17.8,39.7-39.7,39.7s-39.7-17.8-39.7-39.7
		c0,21.9-17.8,39.7-39.7,39.7c-8.4,0-16.7-3.1-23-7.3v-49.1C15,271.8,378.6,271.8,378.6,271.8z"/>
	<polygon class="st7" points="77.7,263.5 -1.8,263.5 15,221.7 87.1,221.7 	"/>
	<polygon class="st2" points="157.1,263.5 77.7,263.5 87.1,221.7 160.2,221.7 	"/>
	<polygon class="st7" points="236.5,263.5 157.1,263.5 160.2,221.7 233.3,221.7 	"/>
	<polygon class="st2" points="315.9,263.5 236.5,263.5 233.3,221.7 306.5,221.7 	"/>
	<polygon class="st7" points="395.3,263.5 315.9,263.5 306.5,221.7 378.6,221.7 	"/>
	<g>
		<path class="st4" d="M77.7,281.2c0,21.9,17.8,39.7,39.7,39.7s39.7-17.8,39.7-39.7v-17.8H77.7V281.2L77.7,281.2z"/>
		<path class="st4" d="M236.5,263.5v17.8c0,21.9,17.8,39.7,39.7,39.7s39.7-17.8,39.7-39.7v-17.8
			C315.9,263.5,236.5,263.5,236.5,263.5z"/>
	</g>
	<g>
		<path class="st9" d="M-1.8,281.2c0,21.9,17.8,39.7,39.7,39.7s39.7-17.8,39.7-39.7v-17.8H-1.8V281.2z"/>
		<path class="st9" d="M157.1,281.2c0,21.9,17.8,39.7,39.7,39.7s39.7-17.8,39.7-39.7v-17.8h-79.4V281.2L157.1,281.2z"/>
		<path class="st9" d="M315.9,263.5v17.8c0,21.9,17.8,39.7,39.7,39.7s39.7-17.8,39.7-39.7v-17.8
			C395.3,263.5,315.9,263.5,315.9,263.5z"/>
	</g>
	<ellipse class="st7" cx="196.8" cy="433.8" rx="61.6" ry="62.7"/>
	<g>
		<g>
			<path class="st1" d="M229.9,448.5c0.1,1.1-0.2,2-1,2.8l-9.3,9.2c-0.4,0.5-1,0.9-1.6,1.2c-0.7,0.3-1.3,0.5-2,0.6c0,0-0.2,0-0.4,0
				s-0.5,0-0.9,0c-0.9,0-2.3-0.2-4.3-0.5s-4.4-1-7.2-2.2c-2.9-1.2-6.1-3-9.7-5.3c-3.6-2.4-7.5-5.6-11.6-9.7
				c-3.2-3.2-5.9-6.3-8.1-9.2c-2.1-2.9-3.9-5.6-5.2-8.1s-2.3-4.7-2.9-6.8c-0.6-2-1.1-3.8-1.3-5.2c-0.2-1.5-0.3-2.6-0.3-3.4
				s0.1-1.3,0.1-1.4c0.1-0.6,0.3-1.3,0.6-2s0.7-1.2,1.2-1.6l9.3-9.3c0.6-0.6,1.4-1,2.2-1c0.6,0,1.1,0.2,1.6,0.5s0.9,0.8,1.2,1.3
				l7.5,14.1c0.4,0.7,0.5,1.6,0.3,2.4c-0.2,0.9-0.6,1.6-1.2,2.2l-3.4,3.4c-0.1,0.1-0.2,0.2-0.2,0.5c-0.1,0.2-0.1,0.4-0.1,0.5
				c0.2,1,0.6,2.1,1.3,3.3c0.6,1.1,1.4,2.5,2.6,4.1c1.2,1.6,2.8,3.4,4.9,5.5c2.1,2.1,3.9,3.8,5.6,5c1.6,1.2,3,2.1,4.1,2.6
				c1.1,0.6,1.9,0.9,2.5,1l0.9,0.2c0.1,0,0.2,0,0.5-0.1c0.2-0.1,0.4-0.2,0.5-0.2l4-4c0.8-0.7,1.8-1.1,2.9-1.1c0.8,0,1.4,0.1,1.9,0.4
				h0.1l13.4,7.9C229.1,446.8,229.7,447.6,229.9,448.5z"/>
		</g>
	</g>
</g>
</svg>
